<svg width="649px" height="87px" viewBox="0 0 649 87" version="1.1" xmlns="http://www.w3.org/2000/svg" xmlns:xlink="http://www.w3.org/1999/xlink">
    <!-- Generator: Sketch 49.3 (51167) - http://www.bohemiancoding.com/sketch -->
    <desc>Created with Sketch.</desc>
    <defs>
        <linearGradient x1="0.00753921399%" y1="49.7194444%" x2="99.9990075%" y2="49.7194444%" id="linearGradient-1">
            <stop stop-color="#FFFFFF" stop-opacity="0" offset="0%"></stop>
            <stop stop-color="#F2F2F2" stop-opacity="0.2145" offset="6.267673%"></stop>
            <stop stop-color="#CFCFD0" stop-opacity="0.6127" offset="17.9%"></stop>
            <stop stop-color="#A7A8A9" offset="29.21%"></stop>
            <stop stop-color="#ACADAE" offset="35.83%"></stop>
            <stop stop-color="#BABABB" offset="43.4%"></stop>
            <stop stop-color="#D0D1D1" offset="51.41%"></stop>
            <stop stop-color="#EDEDED" offset="58.99%"></stop>
            <stop stop-color="#E2E2E2" offset="60.37%"></stop>
            <stop stop-color="#CCCDCD" offset="63.85%"></stop>
            <stop stop-color="#BBBCBD" offset="67.96%"></stop>
            <stop stop-color="#B0B1B1" offset="73.05%"></stop>
            <stop stop-color="#A9AAAB" offset="80.19%"></stop>
            <stop stop-color="#A7A8A9" offset="100%"></stop>
        </linearGradient>
        <linearGradient x1="4.08176%" y1="54.86452%" x2="110.16624%" y2="54.86452%" id="linearGradient-2">
            <stop stop-color="#FFFFFF" stop-opacity="0" offset="0%"></stop>
            <stop stop-color="#F2F2F2" stop-opacity="0.2145" offset="6.267673%"></stop>
            <stop stop-color="#CFCFD0" stop-opacity="0.6127" offset="17.9%"></stop>
            <stop stop-color="#A7A8A9" offset="29.21%"></stop>
            <stop stop-color="#ACADAE" offset="33.68%"></stop>
            <stop stop-color="#BABBBB" offset="38.87%"></stop>
            <stop stop-color="#D1D2D2" offset="44.4%"></stop>
            <stop stop-color="#EDEDED" offset="49.44%"></stop>
            <stop stop-color="#E6E6E6" offset="50.71%"></stop>
            <stop stop-color="#CFCFD0" offset="55.9%"></stop>
            <stop stop-color="#BDBEBE" offset="61.87%"></stop>
            <stop stop-color="#B0B1B2" offset="69.03%"></stop>
            <stop stop-color="#A9AAAB" offset="78.54%"></stop>
            <stop stop-color="#A7A8A9" offset="100%"></stop>
        </linearGradient>
        <linearGradient x1="0.00165908214%" y1="50.3138889%" x2="100.003288%" y2="50.3138889%" id="linearGradient-3">
            <stop stop-color="#FFFFFF" stop-opacity="0" offset="0%"></stop>
            <stop stop-color="#F2F2F2" stop-opacity="0.2145" offset="6.267673%"></stop>
            <stop stop-color="#CFCFD0" stop-opacity="0.6127" offset="17.9%"></stop>
            <stop stop-color="#A7A8A9" offset="29.21%"></stop>
            <stop stop-color="#ACADAE" offset="33.68%"></stop>
            <stop stop-color="#BABBBB" offset="38.87%"></stop>
            <stop stop-color="#D1D2D2" offset="44.4%"></stop>
            <stop stop-color="#EDEDED" offset="49.44%"></stop>
            <stop stop-color="#E6E6E6" offset="50.71%"></stop>
            <stop stop-color="#CFCFD0" offset="55.9%"></stop>
            <stop stop-color="#BDBEBE" offset="61.87%"></stop>
            <stop stop-color="#B0B1B2" offset="69.03%"></stop>
            <stop stop-color="#A9AAAB" offset="78.54%"></stop>
            <stop stop-color="#A7A8A9" offset="100%"></stop>
        </linearGradient>
        <linearGradient x1="4.50716%" y1="60.50788%" x2="96.06956%" y2="60.50788%" id="linearGradient-4">
            <stop stop-color="#FFFFFF" stop-opacity="0" offset="0%"></stop>
            <stop stop-color="#F2F2F2" stop-opacity="0.2145" offset="6.267673%"></stop>
            <stop stop-color="#CFCFD0" stop-opacity="0.6127" offset="17.9%"></stop>
            <stop stop-color="#A7A8A9" offset="29.21%"></stop>
            <stop stop-color="#A9AAAB" offset="44.39%"></stop>
            <stop stop-color="#B1B2B3" offset="52.77%"></stop>
            <stop stop-color="#BFC0C0" offset="59.49%"></stop>
            <stop stop-color="#D3D3D3" offset="65.29%"></stop>
            <stop stop-color="#EBECEC" offset="70.52%"></stop>
            <stop stop-color="#EDEDED" offset="70.79%"></stop>
            <stop stop-color="#DBDBDB" offset="74.06%"></stop>
            <stop stop-color="#C4C5C5" offset="79.4%"></stop>
            <stop stop-color="#B4B5B5" offset="85.16%"></stop>
            <stop stop-color="#AAABAC" offset="91.59%"></stop>
            <stop stop-color="#A7A8A9" offset="100%"></stop>
        </linearGradient>
        <linearGradient x1="0.00781974945%" y1="50.5472222%" x2="100.007125%" y2="50.5472222%" id="linearGradient-5">
            <stop stop-color="#FFFFFF" stop-opacity="0" offset="0%"></stop>
            <stop stop-color="#F2F2F2" stop-opacity="0.2145" offset="6.267673%"></stop>
            <stop stop-color="#CFCFD0" stop-opacity="0.6127" offset="17.9%"></stop>
            <stop stop-color="#A7A8A9" offset="29.21%"></stop>
            <stop stop-color="#A9AAAB" offset="44.39%"></stop>
            <stop stop-color="#B1B2B3" offset="52.77%"></stop>
            <stop stop-color="#BFC0C0" offset="59.49%"></stop>
            <stop stop-color="#D3D3D3" offset="65.29%"></stop>
            <stop stop-color="#EBECEC" offset="70.52%"></stop>
            <stop stop-color="#EDEDED" offset="70.79%"></stop>
            <stop stop-color="#DBDBDB" offset="74.06%"></stop>
            <stop stop-color="#C4C5C5" offset="79.4%"></stop>
            <stop stop-color="#B4B5B5" offset="85.16%"></stop>
            <stop stop-color="#AAABAC" offset="91.59%"></stop>
            <stop stop-color="#A7A8A9" offset="100%"></stop>
        </linearGradient>
    </defs>
    <g id="Page-1" stroke="none" stroke-width="1" fill="none" fill-rule="evenodd">
        <g id="JETNET_Blog_REV_Font" fill-rule="nonzero">
            <g id="Layer_2">
                <path d="M171.4,0 L194.9,0 C194.9,0 182.2,51.1 177.3,70.3 C175.3,74.5 168.1,77.6 163.5,77.5 C149.3,77.3 135.7,77.5 132,77.5 C122.6,77.5 117.2,71.7 117.1,66.2 C117.1,62.5 122.3,45 122.2,45 L143,45 C143,45 139.6,58.8 139.5,58.8 C139.6,58.9 156.8,58.8 156.8,58.8 C156.8,58.7 171.4,0 171.4,0 Z" id="Shape" fill="#FFFFFF"></path>
                <polygon id="Shape" fill="#FFFFFF" points="202.7 0 266.1 0 261.4 18.8 221.5 18.8 218.9 29.3 255.9 29.3 251.2 48.2 214.2 48.2 211.5 58.7 251.4 58.7 246.6 77.5 183.2 77.5"></polygon>
                <polygon id="Shape" fill="#FFFFFF" points="431 0 494.4 0 489.7 18.8 449.8 18.8 447.2 29.3 484.2 29.3 479.5 48.2 442.5 48.2 439.8 58.7 479.7 58.7 475 77.5 411.6 77.5"></polygon>
                <polygon id="Shape" fill="#FFFFFF" points="518.2 19.5 496.4 19.5 501.3 0 568.4 0 563.5 19.5 541.7 19.5 527.2 77.5 503.6 77.5"></polygon>
                <polygon id="Shape" fill="#FFFFFF" points="290.3 19.5 268.5 19.5 273.4 0 349.3 0 359.3 0 376.2 0 389.3 43 389.6 43 400.4 0 422.9 0 403.5 77.5 377.6 77.5 364.4 36.9 362.7 36.3 352.4 77.5 329.9 77.5 344.4 19.5 313.8 19.5 299.3 77.5 275.7 77.5"></polygon>
                <g id="Group" transform="translate(0.000000, 8.000000)">
                    <path d="M0.7,5.7 L369.5,7.6 C371.5,7.6 373.2,6 373.4,4 C373.6,2 372.1,0.4 370.1,0.4 L1.3,2.3 L0.7,5.7 Z" id="Shape" fill="url(#linearGradient-1)"></path>
                    <g id="SVGID_00000054967435982139020550000010483450750507285924_-link" transform="translate(0.000000, 27.000000)" fill="url(#linearGradient-3)">
                        <path d="M0.4,6 L525.2,7.9 C528,7.9 530.5,6.3 530.8,4.3 C531,2.3 529,0.7 526.1,0.7 L1.3,2.6 L0.4,6 Z" id="SVGID_00000054967435982139020550000010483450750507285924_"></path>
                    </g>
                    <g id="SVGID_00000129202140834162224600000005803735973777202059_-link" transform="translate(2.000000, 55.000000)" fill="url(#linearGradient-5)">
                        <path d="M0.5,6.2 L453.5,8.1 C455.9,8.1 458.1,6.5 458.3,4.5 C458.5,2.5 456.7,0.9 454.3,0.9 L1.3,2.8 L0.5,6.2 Z" id="SVGID_00000129202140834162224600000005803735973777202059_"></path>
                    </g>
                </g>
                <path d="M364.3,12.1 C364.3,9.4 366.5,7.3 369.1,7.3 C371.8,7.3 373.9,9.5 373.9,12.1 C373.9,14.8 371.7,16.9 369.1,16.9 C366.4,17 364.3,14.8 364.3,12.1 Z" id="Shape" fill="#A7A8A9"></path>
                <path d="M522.4,39.2 C522.4,36.5 524.6,34.4 527.2,34.4 C529.9,34.4 532,36.6 532,39.2 C532,41.9 529.8,44 527.2,44 C524.6,44.1 522.4,41.9 522.4,39.2 Z" id="Shape" fill="#A7A8A9"></path>
                <path d="M452.9,67.4 C452.9,64.7 455.1,62.6 457.7,62.6 C460.4,62.6 462.5,64.8 462.5,67.4 C462.5,70.1 460.3,72.2 457.7,72.2 C455.1,72.2 452.9,70 452.9,67.4 Z" id="Shape" fill="#A7A8A9"></path>
                <g id="Group" transform="translate(558.000000, 36.000000)" fill="#EAEAEA">
                    <path d="M9.4,0.9 L21.4,0.9 C26.5,0.9 30.9,3.3 29.3,11 C28.5,14.6 25.6,18.1 21.8,19.2 L21.8,19.3 C26.4,20.5 27.8,24.1 26.7,29 C25,37 19.8,40.2 11.6,40.2 L0.9,40.2 L9.4,0.9 Z M6.8,36.2 L13.4,36.2 C18.5,36.2 21,32.7 21.8,28.9 C22.9,23.5 19.9,21.4 15.7,21.4 L9.9,21.4 L6.8,36.2 Z M10.7,17.8 L16.3,17.8 C18.3,17.8 23.1,17.3 24.3,11.3 C25.2,7.2 23.6,4.9 18.9,4.9 L13.5,4.9 L10.7,17.8 Z" id="Shape"></path>
                    <polygon id="Shape" points="38.1 0.9 42.7 0.9 34.4 40.2 29.8 40.2"></polygon>
                    <path d="M56.3,9.9 C64.8,9.9 65.4,17.1 63.6,25.4 C61.8,33.7 58.2,40.9 49.7,40.9 C41.2,40.9 40.6,33.7 42.4,25.4 C44.2,17.1 47.8,9.9 56.3,9.9 Z M58.8,25.4 C60.2,19 60.4,13.5 55.4,13.5 C50.7,13.5 48.6,19 47.2,25.4 C45.8,31.8 45.6,37.3 50.3,37.3 C55.3,37.3 57.4,31.8 58.8,25.4 Z" id="Shape"></path>
                    <path d="M84.9,38.3 C83,47.1 78.3,50.3 72.3,50.3 C70.5,50.3 63.4,50.3 64.2,42.9 L68.8,42.9 C68.4,45.6 70.3,46.6 72.7,46.6 C78.6,46.6 79.4,42 79.8,40 L80.6,36.2 L80.5,36.2 C79,38.7 75.9,40.2 73,40.2 C64.4,40.2 66.2,29.4 67,25.5 C68.7,17.5 72.4,10 79.9,10 C83.1,10 85.2,12.2 85.3,14.5 L85.4,14.5 L86.2,10.8 L90.6,10.8 L84.9,38.3 Z M72,25.4 C71,30.2 70.4,36.2 75,36.2 C80,36.2 82,31.5 83.3,25.4 C84.5,19.7 84.8,13.9 79.8,13.9 C75.5,13.9 73.5,18.4 72,25.4 Z" id="Shape"></path>
                </g>
            </g>
        </g>
    </g>
</svg>
