{
  "actions" : {
    "build" : {
      "enabled" : true,
      "script" : "#!\/bin\/sh\nrm -rf build\/\nmiddleman build -e production\nopen build\/"
    },
    "clean" : {
      "enabled" : true,
      "script" : "#!\/bin\/sh\nrm -rf build\/"
    },
    "run" : {
      "enabled" : true,
      "script" : "#!\/bin\/sh\nmiddleman serve"
    }
  },
  "identifier" : "D860E003-EB02-42AD-96E5-A1D8AA12F671",
  "openLogOnRun" : "fail",
  "persistent" : true
}
